1125|25/06/15|A|15|00|4656||00102103100000192000|716.39|00487367
1126|25/06/15|A|07|31|4656||716.39|0.00|00487367
1127|25/06/15|A|15|00|4412||00100403100000157300|170.00|00488352
1128|25/06/15|A|07|31|4412||170.00|0.00|00488352