REG|000001|25/08/2015|10:33:07|124155|423.00|0001230010110310000010900422682|001011031000001090
REG|000002|25/08/2015|10:39:07|124168|431.00|0001230010110310000010930422686|001011031000001093
REG|000003|25/08/2015|10:49:07|124192|1000.00|0004100289003325792743850000410|028900332579274385
REG|000004|25/08/2015|10:51:07|124197|380.00|0004100289003325792743850000410|028900332579274385
REG|000005|25/08/2015|13:09:07|124491|1000.00|0004100289003325792743850000410|028900332579274385
REG|000006|25/08/2015|13:10:07|124493|1000.00|0004100289003325792743850000410|028900332579274385
REG|000007|25/08/2015|13:11:07|124494|1000.00|0004100289003325792743850000410|028900332579274385
REG|000008|25/08/2015|13:14:07|124501|470.00|0004100289003325792743850000410|028900332579274385
REG|000009|25/08/2015|15:44:07|124861|1020.00|0004100289003325792743850000410|028900332579274385
REG|000010|25/08/2015|16:06:07|124900|1050.00|0004100289003325792743850000410|028900332579274385
REG|000011|25/08/2015|16:08:07|124907|950.00|0004100289003325792743850000410|028900332579274385
REG|000012|25/08/2015|16:10:07|124913|1000.00|0004100289003325792743850000410|028900332579274385
REG|000013|25/08/2015|16:14:07|124919|410.00|0004100289003325792743850000410|028900332579274385
REG|000014|25/08/2015|17:50:07|125094|423.00|0001230010110310000011080422682|001011031000001108