REG|000001|30/06/2015|23:07:07|481315|418.96|0001230010060310000006910418967|001006031000000691
REG|000002|01/07/2015|07:30:13|482197|251.38|0001230010140310000011660251380|001014031000001166
REG|000003|01/07/2015|07:31:41|482200|251.38|0001230010140310000011660251380|001014031000001166
REG|000004|01/07/2015|08:14:48|482302|251.38|0001230010110310000007910251382|001011031000000791
REG|000005|01/07/2015|08:13:59|482318|418.96|0001230010090310000011040418964|001009031000001104
REG|000006|01/07/2015|08:15:07|482321|418.96|0001230010090310000011020418968|001009031000001102
REG|000007|01/07/2015|08:24:08|482329|251.38|0001230010210310000018280251380|001021031000001828
REG|000008|01/07/2015|08:39:42|482392|670.32|0001230010070310000005230670321|001007031000000523
REG|000009|01/07/2015|08:48:07|482397|418.96|0001230010140310000017800418961|001014031000001780
REG|000010|01/07/2015|08:50:24|482402|418.96|0001230010420310000002590418968|001042031000000259
REG|000011|01/07/2015|09:01:02|482452|502.74|0001230010090310000011480502749|001009031000001148
REG|000012|01/07/2015|09:18:04|482481|418.96|0001230010210310000016610418968|001021031000001661
REG|000013|01/07/2015|09:12:08|482485|426.42|0001230010020310000011400426420|001002031000001140
REG|000014|01/07/2015|09:34:17|482530|586.54|0001230010470310000021120586549|001047031000002112
REG|000015|01/07/2015|09:35:43|482532|586.54|0001230010470310000021140586545|001047031000002114
REG|000016|01/07/2015|09:30:08|482536|418.96|0001230010090310000011030418966|001009031000001103
REG|000017|01/07/2015|09:30:19|482537|167.58|0001230010090310000010680167584|001009031000001068
REG|000018|01/07/2015|09:31:10|482541|418.96|0001230010090310000011030418966|001009031000001103
REG|000019|01/07/2015|09:42:59|482564|335.16|0001230010520310000003520335164|001052031000000352
REG|000020|01/07/2015|09:45:51|482573|335.16|0001230010520310000003510335166|001052031000000351
REG|000021|01/07/2015|09:47:49|482608|251.38|0001230010090310000010660251382|001009031000001066
REG|000022|01/07/2015|09:48:56|482613|418.96|0001230010070310000004010418969|001007031000000401
REG|000023|01/07/2015|09:50:06|482617|83.08|0001230010090310000010650083084|001009031000001065
REG|000024|01/07/2015|10:02:49|482640|418.96|0001230010470310000021100418960|001047031000002110
REG|000025|01/07/2015|10:06:59|482656|418.96|0001230010110310000007890418969|001011031000000789
REG|000026|01/07/2015|10:10:22|482694|418.96|0001230010420310000003660418961|001042031000000366
REG|000027|01/07/2015|10:12:31|482705|418.96|0001230010420310000003610418962|001042031000000361
REG|000028|01/07/2015|10:22:07|482741|418.96|0001230010090310000012580418968|001009031000001258
REG|000029|01/07/2015|10:31:39|482742|404.02|0001230010210310000027450404026|001021031000002745
REG|000030|01/07/2015|10:23:49|482749|335.16|0001230010090310000012590335160|001009031000001259
REG|000031|01/07/2015|10:33:26|482750|850.42|0001230010110110000001800850423|001011011000000180
REG|000032|01/07/2015|10:25:58|482760|251.38|0001230010090310000012540251384|001009031000001254
REG|000033|01/07/2015|10:41:25|482781|251.38|0001230010130310000016800251382|001013031000001680
REG|000034|01/07/2015|10:32:32|482784|335.16|0001230010090310000012570335164|001009031000001257
REG|000035|01/07/2015|10:34:07|482791|335.16|0001230010090310000012560335166|001009031000001256
REG|000036|01/07/2015|10:43:36|482792|251.38|0001230010130310000016780251386|001013031000001678
REG|000037|01/07/2015|10:44:48|482796|251.38|0001230010130310000016840251384|001013031000001684
REG|000038|01/07/2015|10:45:13|482800|418.96|0001230010210310000017480418963|001021031000001748
REG|000039|01/07/2015|10:36:20|482801|251.38|0001230010090310000012530251386|001009031000001253
REG|000040|01/07/2015|10:46:11|482804|167.58|0001230010130310000016820167584|001013031000001682
REG|000041|01/07/2015|10:47:45|482807|209.48|0001230010210310000026460209482|001021031000002646
REG|000042|01/07/2015|08:48:29|482840|335.16|0001230010380310000002660335165|001038031000000266
REG|000043|01/07/2015|10:45:49|482841|418.96|0001230010110310000004540418960|001011031000000454
REG|000044|01/07/2015|10:56:25|482845|83.08|0001230010140310000015080083083|001014031000001508
REG|000045|01/07/2015|10:49:49|482860|418.96|0001230010110310000004540418960|001011031000000454
REG|000046|01/07/2015|10:59:50|482864|418.96|0001230010470310000016740418966|001047031000001674
REG|000047|01/07/2015|11:00:18|482866|341.14|0001230010500310000002650341145|001050031000000265
REG|000048|01/07/2015|10:50:54|482867|418.96|0001230010110310000004540418960|001011031000000454
REG|000049|01/07/2015|10:52:41|482873|418.96|0001230010110310000004540418960|001011031000000454
REG|000050|01/07/2015|11:02:44|482876|200.00|0001230010500310000001260200006|001050031000000126
REG|000051|01/07/2015|11:01:20|482898|418.96|0001230010420310000003630418968|001042031000000363
REG|000052|01/07/2015|11:03:18|482907|418.96|0001230010420310000003600418964|001042031000000360
REG|000053|01/07/2015|11:04:27|482910|426.42|0001230010020310000011380426424|001002031000001138
REG|000054|01/07/2015|11:15:13|482926|586.54|0001230010470310000016530586543|001047031000001653
REG|000055|01/07/2015|11:20:47|482950|418.96|0001230010470310000016490418968|001047031000001649
REG|000056|01/07/2015|11:25:18|482970|251.38|0001230010110310000008460251384|001011031000000846
REG|000057|01/07/2015|11:27:56|482984|418.96|0001230010500310000006050418965|001050031000000605
REG|000058|01/07/2015|11:22:44|482993|418.96|0001230010020310000011520418968|001002031000001152
REG|000059|01/07/2015|11:29:35|482994|418.96|0001230010470310000016520418962|001047031000001652
REG|000060|01/07/2015|11:29:36|482995|255.86|0001230010210310000023710255860|001021031000002371
REG|000061|01/07/2015|11:30:44|483003|404.02|0001230010210310000027390404029|001021031000002739
REG|000062|01/07/2015|11:31:20|483004|209.48|0001230010210310000026510209482|001021031000002651
REG|000063|01/07/2015|11:30:55|483029|418.96|0001230010110310000008540418961|001011031000000854
REG|000064|01/07/2015|11:33:35|483040|418.96|0001230010090310000011010418960|001009031000001101
REG|000065|01/07/2015|11:34:23|483043|586.54|0001230010070310000005980586545|001007031000000598
REG|000066|01/07/2015|11:38:07|483057|341.14|0001230010020310000011210341140|001002031000001121
REG|000067|01/07/2015|11:48:08|483069|335.16|0001230010210310000022030335162|001021031000002203
REG|000068|01/07/2015|11:43:14|483075|418.96|0001230010030310000009300418966|001003031000000930
REG|000069|01/07/2015|11:52:12|483080|418.96|0001230010470310000017140418960|001047031000001714
REG|000070|01/07/2015|11:47:23|483084|255.86|0001230010020310000011180255866|001002031000001118
REG|000071|01/07/2015|11:49:44|483089|251.38|0001230010420310000003640251383|001042031000000364
REG|000072|01/07/2015|09:59:26|483109|251.38|0001230010380310000005050251389|001038031000000505
REG|000073|01/07/2015|12:08:53|483116|418.96|0001230010500310000004930418966|001050031000000493
REG|000074|01/07/2015|12:07:22|483126|418.96|0001230010070310000006210418962|001007031000000621
REG|000075|01/07/2015|12:08:10|483128|418.96|0001230010070310000006200418964|001007031000000620
REG|000076|01/07/2015|12:15:02|483129|418.96|0001230010500310000006110418963|001050031000000611
REG|000077|01/07/2015|12:12:54|483135|418.96|0001230010310310000012550418968|001031031000001255
REG|000078|01/07/2015|12:14:17|483144|418.96|0001230010310310000012540418961|001031031000001254
REG|000079|01/07/2015|10:21:06|483160|83.08|0001230010370310000008050083085|001037031000000805
REG|000080|01/07/2015|10:22:58|483165|167.58|0001230010370310000008100167581|001037031000000810
REG|000081|01/07/2015|12:23:55|483166|418.96|0001230010110310000007820418964|001011031000000782
REG|000082|01/07/2015|12:21:03|483169|335.16|0001230010020310000008010335165|001002031000000801
REG|000083|01/07/2015|12:33:15|483180|418.96|0001230010500310000005930418963|001050031000000593
REG|000084|01/07/2015|12:34:22|483184|418.96|0001230010500310000005880418963|001050031000000588
REG|000085|01/07/2015|12:29:02|483186|418.96|0001230010070310000004030418965|001007031000000403
REG|000086|01/07/2015|12:30:12|483191|418.96|0001230010520310000003640418965|001052031000000364
REG|000087|01/07/2015|12:32:25|483195|418.96|0001230010520310000003650418962|001052031000000365
REG|000088|01/07/2015|12:33:02|483198|418.96|0001230010520310000003730418966|001052031000000373
REG|000089|01/07/2015|12:34:18|483200|418.96|0001230010090310000011530418961|001009031000001153
REG|000090|01/07/2015|12:35:28|483203|418.96|0001230010520310000003710418960|001052031000000371
REG|000091|01/07/2015|12:43:32|483206|418.96|0001230010500310000004160418967|001050031000000416
REG|000092|01/07/2015|12:37:22|483207|418.96|0001230010520310000003760418969|001052031000000376
REG|000093|01/07/2015|12:39:09|483211|251.38|0001230010520310000003740251381|001052031000000374
REG|000094|01/07/2015|12:48:09|483220|418.96|0001230010030310000012210418969|001003031000001221
REG|000095|01/07/2015|12:42:04|483221|335.16|0001230010050310000013400335166|001005031000001340
REG|000096|01/07/2015|12:52:08|483233|418.96|0001230010030310000012720418962|001003031000001272
REG|000097|01/07/2015|12:53:51|483240|418.96|0001230010030310000012250418960|001003031000001225
REG|000098|01/07/2015|12:47:38|483241|418.96|0001230010070310000006170418960|001007031000000617
REG|000099|01/07/2015|12:55:36|483243|418.96|0001230010030310000012690418968|001003031000001269
REG|000100|01/07/2015|12:57:15|483248|167.58|0001230010030310000012700167589|001003031000001270
REG|000101|01/07/2015|13:00:41|483269|335.16|0001230010310310000012570335168|001031031000001257
REG|000102|01/07/2015|13:02:41|483274|418.96|0001230010310310000012590418960|001031031000001259
REG|000103|01/07/2015|13:03:50|483277|335.16|0001230010020310000007870335166|001002031000000787
REG|000104|01/07/2015|13:11:16|483280|335.16|0001230010210310000025890335164|001021031000002589
REG|000105|01/07/2015|13:09:16|483289|511.70|0001230010030110000000450511704|001003011000000045
REG|000106|01/07/2015|13:17:45|483295|418.96|0001230010210310000027980418967|001021031000002798
REG|000107|01/07/2015|13:18:42|483303|418.96|0001230010470310000018470418968|001047031000001847
REG|000108|01/07/2015|13:19:38|483306|586.54|0001230010470310000016470586545|001047031000001647
REG|000109|01/07/2015|13:22:13|483317|418.96|0001230010500310000003630418961|001050031000000363
REG|000110|01/07/2015|12:23:26|483328|418.96|0001230010050310000013730418963|001005031000001373
REG|000111|01/07/2015|12:24:43|483331|418.96|0001230010050310000013710418967|001005031000001371
REG|000112|01/07/2015|13:31:16|483332|418.96|0001230010520310000003800418961|001052031000000380
REG|000113|01/07/2015|13:31:58|483334|351.92|0001230010470310000016540351920|001047031000001654
REG|000114|01/07/2015|12:25:56|483337|418.96|0001230010050310000013720418965|001005031000001372
REG|000115|01/07/2015|12:27:05|483341|418.96|0001230010050310000013680418963|001005031000001368
REG|000116|01/07/2015|13:33:47|483343|418.96|0001230010520310000003770418967|001052031000000377
REG|000117|01/07/2015|13:35:09|483347|418.96|0001230010520310000003790418963|001052031000000379
REG|000118|01/07/2015|13:30:05|483354|670.32|0001230010110310000007920670324|001011031000000792
REG|000119|01/07/2015|13:30:12|483355|418.96|0001230010110310000007810418966|001011031000000781
REG|000120|01/07/2015|13:31:59|483363|418.96|0001230010110310000007860418965|001011031000000786
REG|000121|01/07/2015|13:41:03|483367|251.38|0001230010420310000003420251389|001042031000000342
REG|000122|01/07/2015|13:47:44|483388|418.96|0001230010210310000026490418962|001021031000002649
REG|000123|01/07/2015|13:49:28|483394|418.96|0001230010210310000026470418966|001021031000002647
REG|000124|01/07/2015|14:00:47|483432|209.48|0001230010030310000010850209482|001003031000001085
REG|000125|01/07/2015|14:01:03|483446|418.96|0001230010070310000006160418962|001007031000000616
REG|000126|01/07/2015|14:01:50|483451|341.14|0001230010090310000012640341143|001009031000001264
REG|000127|01/07/2015|14:02:33|483452|83.08|0001230010030310000010440083082|001003031000001044
REG|000128|01/07/2015|14:05:52|483475|586.54|0001230010110310000008450586542|001011031000000845
REG|000129|01/07/2015|14:16:28|483479|418.96|0001230010500310000002970418961|001050031000000297
REG|000130|01/07/2015|14:10:50|483482|418.96|0001230010090310000009750418968|001009031000000975
REG|000131|01/07/2015|14:18:47|483483|418.96|0001230010500310000002980418969|001050031000000298
REG|000132|01/07/2015|14:20:33|483488|418.96|0001230010500310000002990418967|001050031000000299
REG|000133|01/07/2015|14:21:06|483489|426.42|0001230010210310000025740426429|001021031000002574
REG|000134|01/07/2015|14:18:48|483505|426.42|0001230010420310000000480426422|001042031000000048
REG|000135|01/07/2015|14:22:36|483523|335.16|0001230010310310000011470335161|001031031000001147
REG|000136|01/07/2015|14:35:47|483538|255.86|0001230010210310000025770255862|001021031000002577
REG|000137|01/07/2015|14:36:09|483540|418.96|0001230010520310000002720418960|001052031000000272
REG|000138|01/07/2015|14:32:04|483547|418.96|0001230010050310000012310418963|001005031000001231
REG|000139|01/07/2015|14:43:26|483559|251.38|0001230010090310000012060251384|001009031000001206
REG|000140|01/07/2015|14:44:44|483567|335.16|0001230010090310000012090335165|001009031000001209
REG|000141|01/07/2015|14:44:56|483568|418.96|0001230010420310000002780418968|001042031000000278
REG|000142|01/07/2015|14:45:44|483571|418.96|0001230010210310000026500418960|001021031000002650
REG|000143|01/07/2015|14:46:45|483574|251.38|0001230010090310000012080251380|001009031000001208
REG|000144|01/07/2015|14:47:11|483575|418.96|0001230010420310000002830418968|001042031000000283
REG|000145|01/07/2015|14:48:09|483589|251.38|0001230010420310000000150251381|001042031000000015
REG|000146|01/07/2015|14:49:35|483591|251.38|0001230010420310000000170251387|001042031000000017
REG|000147|01/07/2015|14:51:26|483596|418.96|0001230010090310000011000418962|001009031000001100
REG|000148|01/07/2015|14:59:20|483603|418.96|0001230010430310000007830418965|001043031000000783
REG|000149|01/07/2015|14:59:31|483623|418.96|0001230010030310000009290418968|001003031000000929
REG|000150|01/07/2015|15:07:17|483626|880.76|0001230010210310000027430880766|001021031000002743
REG|000151|01/07/2015|15:01:24|483628|418.96|0001230010030310000009310418964|001003031000000931
REG|000152|01/07/2015|15:01:38|483629|586.54|0001230010110310000008580586545|001011031000000858
REG|000153|01/07/2015|15:04:30|483641|418.96|0001230010120310000008340418961|001012031000000834
REG|000154|01/07/2015|15:09:02|483656|418.96|0001230010120310000008360418966|001012031000000836
REG|000155|01/07/2015|15:10:15|483661|418.96|0001230010050310000013690418961|001005031000001369
REG|000156|01/07/2015|15:10:35|483665|418.96|0001230010120310000008350418968|001012031000000835
REG|000157|01/07/2015|15:17:30|483667|426.42|0001230010430310000003140426426|001043031000000314
REG|000158|01/07/2015|15:18:54|483675|426.42|0001230010430310000003170426429|001043031000000317
REG|000159|01/07/2015|15:12:50|483676|418.96|0001230010120310000008310418967|001012031000000831
REG|000160|01/07/2015|15:20:05|483679|426.42|0001230010430310000003180426427|001043031000000318
REG|000161|01/07/2015|15:14:05|483682|418.96|0001230010120310000008320418965|001012031000000832
REG|000162|01/07/2015|15:22:06|483690|426.42|0001230010430310000003150426423|001043031000000315
REG|000163|01/07/2015|15:24:00|483696|255.86|0001230010430310000003160255861|001043031000000316
REG|000164|01/07/2015|15:19:45|483709|418.96|0001230010050310000012910418967|001005031000001291
REG|000165|01/07/2015|15:22:35|483718|418.96|0001230010050310000013700418969|001005031000001370
REG|000166|01/07/2015|15:29:06|483719|167.58|0001230010140310000017420167584|001014031000001742
REG|000167|01/07/2015|15:22:45|483720|586.54|0001230010310310000014900586544|001031031000001490
REG|000168|01/07/2015|15:29:23|483721|335.16|0001230010420310000003450335169|001042031000000345
REG|000169|01/07/2015|15:36:01|483732|502.74|0001230010300310000017160502749|001030031000001716
REG|000170|01/07/2015|15:38:58|483744|418.96|0001230010520310000003720418968|001052031000000372
REG|000171|01/07/2015|15:39:38|483761|418.96|0001230010050310000012280418969|001005031000001228
REG|000172|01/07/2015|15:49:43|483772|418.96|0001230010430310000007820418967|001043031000000782
REG|000173|01/07/2015|15:51:38|483779|418.96|0001230010430310000007780418965|001043031000000778
REG|000174|01/07/2015|15:52:08|483781|418.96|0001230010090310000011300418969|001009031000001130
REG|000175|01/07/2015|15:54:43|483792|418.96|0001230010420310000001820418962|001042031000000182
REG|000176|01/07/2015|16:03:07|483796|251.38|0001230010430310000007040251388|001043031000000704
REG|000177|01/07/2015|15:57:53|483804|167.58|0001230010030310000009320167585|001003031000000932
REG|000178|01/07/2015|16:05:09|483810|167.58|0001230010030310000012740167581|001003031000001274
REG|000179|01/07/2015|16:00:19|483812|418.96|0001230010070310000005270418961|001007031000000527
REG|000180|01/07/2015|16:07:30|483815|251.38|0001230010430310000007050251385|001043031000000705
REG|000181|01/07/2015|16:06:26|483833|335.16|0001230010020310000007550335163|001002031000000755
REG|000182|01/07/2015|16:13:21|483837|418.96|0001230010210310000026480418964|001021031000002648
REG|000183|01/07/2015|16:13:31|483838|418.96|0001230010020310000011100418966|001002031000001110
REG|000184|01/07/2015|16:14:47|483841|418.96|0001230010020310000011110418964|001002031000001111
REG|000185|01/07/2015|16:16:31|483845|418.96|0001230010020310000011060418964|001002031000001106
REG|000186|01/07/2015|16:13:03|483859|418.96|0001230010030310000012520418964|001003031000001252
REG|000187|01/07/2015|16:19:42|483863|251.38|0001230010500310000003020251386|001050031000000302
REG|000188|01/07/2015|16:14:20|483873|418.96|0001230010030310000012540418960|001003031000001254
REG|000189|01/07/2015|16:14:26|483874|509.22|0001230010310310000000940509224|001031031000000094
REG|000190|01/07/2015|16:23:34|483883|418.96|0001230010500310000004910418960|001050031000000491
REG|000191|01/07/2015|16:29:15|483901|167.58|0001230010500310000001700167583|001050031000000170
REG|000192|01/07/2015|16:28:45|483927|418.96|0001230010310310000010980418962|001031031000001098
REG|000193|01/07/2015|16:36:33|483933|418.96|0001230010310310000013510418965|001031031000001351
REG|000194|01/07/2015|16:36:37|483934|167.58|0001230010430310000003710167582|001043031000000371
REG|000195|01/07/2015|16:31:41|483940|418.96|0001230010030310000009340418968|001003031000000934
REG|000196|01/07/2015|16:40:55|483952|251.38|0001230010090310000012100251386|001009031000001210
REG|000197|01/07/2015|16:43:49|483964|418.96|0001230010430310000004530418965|001043031000000453
REG|000198|01/07/2015|16:43:19|483984|418.96|0001230010310310000013600418966|001031031000001360
REG|000199|01/07/2015|16:52:21|483996|170.57|0001230010430310000006670170579|001043031000000667
REG|000200|01/07/2015|16:48:00|484003|418.96|0001230010110310000007990418968|001011031000000799
REG|000201|01/07/2015|16:58:41|484018|418.96|0001230010310310000012050418963|001031031000001205
REG|000202|01/07/2015|17:01:49|484033|335.16|0001230010490310000005780335160|001049031000000578
REG|000203|01/07/2015|17:03:15|484037|418.96|0001230010490310000005790418964|001049031000000579
REG|000204|01/07/2015|17:08:05|484059|251.38|0001230010060310000006350251381|001006031000000635
REG|000205|01/07/2015|17:10:20|484065|586.54|0001230010310310000014940586546|001031031000001494
REG|000206|01/07/2015|17:06:59|484072|418.96|0001230010110310000008470418965|001011031000000847
REG|000207|01/07/2015|17:14:21|484076|418.96|0001230010500310000003570418963|001050031000000357
REG|000208|01/07/2015|17:08:53|484078|251.38|0001230010110310000004640251386|001011031000000464
REG|000209|01/07/2015|17:11:44|484083|586.54|0001230010110310000008420586549|001011031000000842
REG|000210|01/07/2015|17:13:19|484086|586.54|0001230010110310000008430586547|001011031000000843
REG|000211|01/07/2015|17:22:18|484090|418.96|0001230010310310000012920418961|001031031000001292
REG|000212|01/07/2015|17:23:30|484092|586.54|0001230010310310000014890586546|001031031000001489
REG|000213|01/07/2015|17:24:57|484098|335.16|0001230010030310000012220335161|001003031000001222
REG|000214|01/07/2015|17:25:18|484099|418.96|0001230010500310000006060418963|001050031000000606
REG|000215|01/07/2015|17:24:10|484120|418.96|0001230010050310000012300418965|001005031000001230
REG|000216|01/07/2015|17:33:31|484125|418.96|0001230010030310000011770418963|001003031000001177
REG|000217|01/07/2015|17:35:17|484135|418.96|0001230010500310000005830418964|001050031000000583
REG|000218|01/07/2015|17:38:16|484144|586.54|0001230010470310000018350586546|001047031000001835
REG|000219|01/07/2015|17:48:41|484183|125.68|0001230010030310000010450125682|001003031000001045
REG|000220|01/07/2015|18:01:14|484246|418.96|0001230010030310000009330418960|001003031000000933
REG|000221|01/07/2015|18:11:57|484260|564.50|0001230010470110000001350564501|001047011000000135
REG|000222|01/07/2015|18:13:54|484270|418.96|0001230010500310000005240418968|001050031000000524
REG|000223|01/07/2015|18:15:18|484273|418.96|0001230010500310000005220418962|001050031000000522
REG|000224|01/07/2015|18:11:46|484277|418.96|0001230010020310000010740418964|001002031000001074
REG|000225|01/07/2015|18:24:57|484307|418.96|0001230010500310000003610418965|001050031000000361
REG|000226|01/07/2015|18:18:41|484308|418.96|0001230010020310000009050418960|001002031000000905
REG|000227|01/07/2015|18:27:04|484314|426.42|0001230010430310000005870426427|001043031000000587
REG|000228|01/07/2015|18:21:28|484321|418.96|0001230010110310000006360418962|001011031000000636
REG|000229|01/07/2015|18:22:43|484327|426.42|0001230010030310000010560426426|001003031000001056
REG|000230|01/07/2015|18:31:52|484337|418.96|0001230010500310000001640418963|001050031000000164
REG|000231|01/07/2015|18:27:00|484340|418.96|0001230010030310000011340418964|001003031000001134
REG|000232|01/07/2015|18:32:19|484341|418.96|0001230010490310000014530418961|001049031000001453
REG|000233|01/07/2015|18:27:07|484348|418.96|0001230010090310000009770418964|001009031000000977
REG|000234|01/07/2015|18:29:25|484354|418.96|0001230010070310000004420418963|001007031000000442
REG|000235|01/07/2015|18:49:16|484406|418.96|0001230010030310000010860418966|001003031000001086
REG|000236|01/07/2015|18:49:55|484410|418.96|0001230010090310000010480418963|001009031000001048
REG|000237|01/07/2015|18:47:56|484428|167.58|0001230010070310000005610167583|001007031000000561
REG|000238|01/07/2015|18:48:55|484436|418.96|0001230010110310000008400418960|001011031000000840
REG|000239|01/07/2015|18:56:30|484441|255.86|0001230010210310000023770255867|001021031000002377
REG|000240|01/07/2015|18:50:23|484442|418.96|0001230010070310000004340418960|001007031000000434
REG|000241|01/07/2015|19:02:57|484478|418.96|0001230010070310000004580418969|001007031000000458
REG|000242|01/07/2015|19:12:17|484489|335.16|0001230010210310000024680335161|001021031000002468
REG|000243|01/07/2015|19:13:54|484494|418.96|0001230010140310000013220418962|001014031000001322
REG|000244|01/07/2015|19:15:02|484498|418.96|0001230010140310000013220418962|001014031000001322
REG|000245|01/07/2015|19:09:56|484502|418.96|0001230010070310000004420418963|001007031000000442
REG|000246|01/07/2015|19:11:00|484508|418.96|0001230010070310000004420418963|001007031000000442
REG|000247|01/07/2015|19:11:34|484510|167.58|0001230010030310000011630167586|001003031000001163
REG|000248|01/07/2015|19:12:42|484517|418.96|0001230010070310000004420418963|001007031000000442
REG|000249|01/07/2015|19:14:49|484523|251.38|0001230010490310000007310251388|001049031000000731
REG|000250|01/07/2015|19:24:20|484532|418.96|0001230010210310000017760418964|001021031000001776
REG|000251|01/07/2015|19:33:38|484558|426.42|0001230010500310000002670426421|001050031000000267
REG|000252|01/07/2015|19:29:44|484567|418.96|0001230010050310000012880418963|001005031000001288
REG|000253|01/07/2015|19:31:55|484578|418.96|0001230010050310000012890418961|001005031000001289
REG|000254|01/07/2015|19:34:01|484586|418.96|0001230010070310000005620418968|001007031000000562
REG|000255|01/07/2015|19:41:34|484589|418.96|0001230010500310000003640418969|001050031000000364
REG|000256|01/07/2015|19:35:31|484591|418.96|0001230010070310000005620418968|001007031000000562
REG|000257|01/07/2015|19:43:01|484627|170.57|0001230010030310000010590170572|001003031000001059
REG|000258|01/07/2015|19:44:23|484633|255.86|0001230010030310000010580255862|001003031000001058
REG|000259|01/07/2015|19:47:39|484644|520.67|0001230010300110000000200520677|001030011000000020
REG|000260|01/07/2015|18:48:56|484650|418.96|0001230010060310000006830418964|001006031000000683
REG|000261|01/07/2015|19:49:53|484652|418.96|0001230010520310000002830418967|001052031000000283
REG|000262|01/07/2015|18:50:28|484655|418.96|0001230010060310000006830418964|001006031000000683
REG|000263|01/07/2015|18:52:23|484657|167.58|0001230010060310000006790167585|001006031000000679
REG|000264|01/07/2015|18:54:29|484663|167.58|0001230010060310000006790167585|001006031000000679
REG|000265|01/07/2015|19:56:38|484672|418.96|0001230010070310000003940418966|001007031000000394
REG|000266|01/07/2015|19:57:55|484677|426.42|0001230010420310000003400426423|001042031000000340
REG|000267|01/07/2015|19:58:20|484678|418.96|0001230010020310000009070418966|001002031000000907
REG|000268|01/07/2015|20:09:09|484717|404.02|0001230010420310000002380404020|001042031000000238
REG|000269|01/07/2015|20:16:47|484718|335.16|0001230010210310000024420335166|001021031000002442
REG|000270|01/07/2015|20:17:11|484719|209.48|0001230010030310000012710209488|001003031000001271
REG|000271|01/07/2015|20:21:48|484732|251.38|0001230010490310000004620251380|001049031000000462
REG|000272|01/07/2015|20:27:27|484761|418.96|0001230010070310000004730418968|001007031000000473
REG|000273|01/07/2015|20:39:42|484787|167.58|0001230010050310000013150167587|001005031000001315
REG|000274|01/07/2015|20:41:41|484792|418.96|0001230010050310000013160418962|001005031000001316
REG|000275|01/07/2015|20:56:07|484812|418.96|0001230010310310000011670418965|001031031000001167
REG|000276|01/07/2015|20:57:29|484814|341.14|0001230010500310000002030341146|001050031000000203
REG|000277|01/07/2015|20:51:49|484815|251.38|0001230010020310000011240251384|001002031000001124
REG|000278|01/07/2015|21:06:42|484838|418.96|0001230010050310000013240418966|001005031000001324
REG|000279|01/07/2015|21:26:08|484878|418.96|0001230010380310000006060418968|001038031000000606
REG|000280|01/07/2015|21:26:14|484879|418.96|0001230010050310000011300418967|001005031000001130
REG|000281|01/07/2015|21:28:14|484881|586.54|0001230010380310000006100586543|001038031000000610
REG|000282|01/07/2015|21:29:58|484885|586.54|0001230010380310000006110586541|001038031000000611
REG|000283|01/07/2015|21:48:14|484908|1131.25|0001230010070310000005701131258|001007031000000570
REG|000284|01/07/2015|21:55:51|484911|846.78|0001230010470110000000230846781|001047011000000023
REG|000285|01/07/2015|21:57:15|484922|670.32|0001230010090310000008200670327|001009031000000820
REG|000286|01/07/2015|21:59:09|484925|670.32|0001230010090310000008200670327|001009031000000820
REG|000287|01/07/2015|22:00:43|484928|670.32|0001230010090310000008200670327|001009031000000820
REG|000288|01/07/2015|22:02:05|484929|670.32|0001230010090310000008150670327|001009031000000815
REG|000289|01/07/2015|22:08:45|484931|251.38|0001230010140310000012910251386|001014031000001291
REG|000290|01/07/2015|22:04:43|484934|670.32|0001230010090310000008150670327|001009031000000815
REG|000291|01/07/2015|22:05:59|484935|670.32|0001230010090310000008180670321|001009031000000818
REG|000292|01/07/2015|22:07:13|484938|670.32|0001230010090310000008180670321|001009031000000818
REG|000293|01/07/2015|22:08:43|484941|586.54|0001230010090310000008170586545|001009031000000817
REG|000294|01/07/2015|22:11:44|484946|586.54|0001230010090310000008170586545|001009031000000817
REG|000295|01/07/2015|22:13:07|484948|418.96|0001230010090310000008160418964|001009031000000816
REG|000296|01/07/2015|22:16:17|484950|418.96|0001230010090310000008160418964|001009031000000816
REG|000297|01/07/2015|22:17:47|484953|418.96|0001230010090310000008190418968|001009031000000819
REG|000298|01/07/2015|22:18:56|484954|418.96|0001230010090310000008190418968|001009031000000819
REG|000299|01/07/2015|21:21:50|484955|586.54|0001230010380310000006080586547|001038031000000608
REG|000300|01/07/2015|21:23:12|484956|586.54|0001230010380310000006090586545|001038031000000609
REG|000301|01/07/2015|22:54:31|484972|418.96|0001230010030310000011360418969|001003031000001136