REG|000001|09/07/2015|08:19:00|497991|426.42|0001230010210310000028570426428|001021031000002857
REG|000002|09/07/2015|08:20:38|497996|426.42|0001230010210310000028540426425|001021031000002854
REG|000003|09/07/2015|08:21:43|498012|418.96|0001230010020310000011520418968|001002031000001152
REG|000004|09/07/2015|08:37:05|498046|418.96|0001230010110310000008370418966|001011031000000837
REG|000005|09/07/2015|08:38:33|498047|418.96|0001230010110310000008390418962|001011031000000839
REG|000006|09/07/2015|08:45:46|498051|418.96|0001230010500310000005050418967|001050031000000505
REG|000007|09/07/2015|08:47:24|498058|167.58|0001230010090310000012110167580|001009031000001211
REG|000008|09/07/2015|08:55:27|498075|418.96|0001230010060310000007450418961|001006031000000745
REG|000009|09/07/2015|09:09:30|498095|418.96|0001230010090310000013090418969|001009031000001309
REG|000010|09/07/2015|09:04:54|498101|335.16|0001230010090310000012150335162|001009031000001215
REG|000011|09/07/2015|09:06:59|498110|251.38|0001230010090310000013070251380|001009031000001307
REG|000012|09/07/2015|09:30:38|498134|426.42|0001230010070110000000650426423|001007011000000065
REG|000013|09/07/2015|09:34:26|498138|418.96|0001230010090310000009730418963|001009031000000973
REG|000014|09/07/2015|09:45:04|498148|418.96|0001230010470310000021170418965|001047031000002117
REG|000015|09/07/2015|09:49:44|498156|418.96|0001230010030310000011900418966|001003031000001190
REG|000016|09/07/2015|09:43:04|498158|251.38|0001230010050310000010610251381|001005031000001061
REG|000017|09/07/2015|09:58:11|498164|251.38|0001230010500310000004390251386|001050031000000439
REG|000018|09/07/2015|09:59:28|498166|167.58|0001230010500310000004340167583|001050031000000434
REG|000019|09/07/2015|10:12:26|498189|335.16|0001230010030310000011930335164|001003031000001193
REG|000020|09/07/2015|10:17:56|498204|418.96|0001230010120310000008350418968|001012031000000835
REG|000021|09/07/2015|10:19:42|498208|418.96|0001230010120310000008310418967|001012031000000831
REG|000022|09/07/2015|10:30:59|498213|418.96|0001230010430310000007290418968|001043031000000729
REG|000023|09/07/2015|10:44:01|498237|251.38|0001230010500310000001480251383|001050031000000148
REG|000024|09/07/2015|10:46:37|498241|335.16|0001230010040310000016060335163|001004031000001606
REG|000025|09/07/2015|11:07:33|498287|418.96|0001230010090310000013010418966|001009031000001301
REG|000026|09/07/2015|11:08:54|498292|167.58|0001230010090310000012980167587|001009031000001298
REG|000027|09/07/2015|11:26:40|498324|418.96|0001230010110310000007460418969|001011031000000746
REG|000028|09/07/2015|11:43:00|498354|418.96|0001230010500310000005830418964|001050031000000583
REG|000029|09/07/2015|11:41:18|498363|418.96|0001230010090310000009750418968|001009031000000975
REG|000030|09/07/2015|12:02:27|498383|335.16|0001230010500310000005800335164|001050031000000580
REG|000031|09/07/2015|12:04:41|498390|125.68|0001230010030310000010450125682|001003031000001045
REG|000032|09/07/2015|12:06:44|498394|426.42|0001230010020310000011220426428|001002031000001122
REG|000033|09/07/2015|12:16:55|498412|426.42|0001230010030310000010510426427|001003031000001051
REG|000034|09/07/2015|12:17:26|498413|418.96|0001230010520310000001940418966|001052031000000194
REG|000035|09/07/2015|12:19:32|498420|418.96|0001230010210310000027600418967|001021031000002760
REG|000036|09/07/2015|12:37:19|498448|426.42|0001230010210310000026790426426|001021031000002679
REG|000037|09/07/2015|12:38:54|498452|255.86|0001230010210310000026780255868|001021031000002678
REG|000038|09/07/2015|12:34:19|498456|418.96|0001230010050310000009460418967|001005031000000946
REG|000039|09/07/2015|12:41:31|498464|251.38|0001230010030310000010470251385|001003031000001047
REG|000040|09/07/2015|12:43:20|498466|335.16|0001230010030310000010500335166|001003031000001050
REG|000041|09/07/2015|13:04:00|498494|418.96|0001230010500310000005620418968|001050031000000562
REG|000042|09/07/2015|13:11:36|498515|167.58|0001230010030310000012700167589|001003031000001270
REG|000043|09/07/2015|13:07:56|498527|255.86|0001230010020310000011180255866|001002031000001118
REG|000044|09/07/2015|13:10:09|498534|484.82|0001230010300310000014520484825|001030031000001452
REG|000045|09/07/2015|13:19:41|498538|502.74|0001230010300310000015600502741|001030031000001560
REG|000046|09/07/2015|13:29:25|498557|255.86|0001230010210310000021360255867|001021031000002136
REG|000047|09/07/2015|13:42:22|498587|251.38|0001230010210310000026090251383|001021031000002609
REG|000048|09/07/2015|13:37:30|498590|418.96|0001230010050310000013250418963|001005031000001325
REG|000049|09/07/2015|13:39:35|498595|251.38|0001230010050310000013190251383|001005031000001319
REG|000050|09/07/2015|13:48:39|498621|251.38|0001230010520310000004560251386|001052031000000456
REG|000051|09/07/2015|13:50:10|498624|418.96|0001230010520310000004540418964|001052031000000454
REG|000052|09/07/2015|13:52:59|498632|335.16|0001230010520310000004570335161|001052031000000457
REG|000053|09/07/2015|13:54:26|498635|167.58|0001230010030310000010490167587|001003031000001049
REG|000054|09/07/2015|13:55:49|498639|418.96|0001230010030310000010460418960|001003031000001046
REG|000055|09/07/2015|14:07:25|498658|418.96|0001230010520310000003800418961|001052031000000380
REG|000056|09/07/2015|14:12:59|498671|242.42|0001230010500310000002210242429|001050031000000221
REG|000057|09/07/2015|14:13:16|498672|167.58|0001230010420310000003710167584|001042031000000371
REG|000058|09/07/2015|14:15:23|498680|242.42|0001230010500310000002170242427|001050031000000217
REG|000059|09/07/2015|14:15:38|498681|418.96|0001230010500310000004360418965|001050031000000436
REG|000060|09/07/2015|14:15:58|498683|418.96|0001230010420310000003690418965|001042031000000369
REG|000061|09/07/2015|14:11:05|498686|502.74|0001230010030310000013180502741|001003031000001318
REG|000062|09/07/2015|14:19:39|498702|170.57|0001230010090310000011140170572|001009031000001114
REG|000063|09/07/2015|14:21:22|498708|426.42|0001230010020310000011400426420|001002031000001140
REG|000064|09/07/2015|14:28:12|498713|167.58|0001230010500310000005500167586|001050031000000550
REG|000065|09/07/2015|14:27:28|498733|213.21|0001230010030310000011490213215|001003031000001149
REG|000066|09/07/2015|14:28:04|498735|255.86|0001230010090310000011120255864|001009031000001112
REG|000067|09/07/2015|14:29:29|498741|213.21|0001230010030310000011460213211|001003031000001146
REG|000068|09/07/2015|14:37:42|498752|418.96|0001230010470310000021260418966|001047031000002126
REG|000069|09/07/2015|14:41:40|498771|418.96|0001230010030310000012690418968|001003031000001269
REG|000070|09/07/2015|14:37:45|498774|426.42|0001230010020310000011370426426|001002031000001137
REG|000071|09/07/2015|15:05:08|498814|418.96|0001230010420310000004040418960|001042031000000404
REG|000072|09/07/2015|15:00:35|498827|565.62|0001230010110310000008600565628|001011031000000860
REG|000073|09/07/2015|15:11:03|498831|418.96|0001230010030310000011960418963|001003031000001196
REG|000074|09/07/2015|15:11:12|498833|426.42|0001230010030310000012800426422|001003031000001280
REG|000075|09/07/2015|15:11:39|498835|586.54|0001230010470310000020690586541|001047031000002069
REG|000076|09/07/2015|15:13:08|498841|418.96|0001230010210310000024340418969|001021031000002434
REG|000077|09/07/2015|15:15:03|498848|335.16|0001230010030310000011970335165|001003031000001197
REG|000078|09/07/2015|15:16:18|498849|418.96|0001230010030310000011920418962|001003031000001192
REG|000079|09/07/2015|15:20:51|498862|418.96|0001230010030310000012010418961|001003031000001201
REG|000080|09/07/2015|15:18:40|498871|251.38|0001230010090310000012770251385|001009031000001277
REG|000081|09/07/2015|15:27:50|498874|426.42|0001230010210310000023910426428|001021031000002391
REG|000082|09/07/2015|15:29:34|498879|341.14|0001230010210310000023900341140|001021031000002390
REG|000083|09/07/2015|15:25:34|498885|335.16|0001230010090310000011740335161|001009031000001174
REG|000084|09/07/2015|15:30:25|498902|418.96|0001230010030310000012620418963|001003031000001262
REG|000085|09/07/2015|15:45:21|498921|170.57|0001230010030310000012780170578|001003031000001278
REG|000086|09/07/2015|15:47:55|498935|418.96|0001230010030310000012660418964|001003031000001266
REG|000087|09/07/2015|15:52:09|498943|418.96|0001230010310310000013600418966|001031031000001360
REG|000088|09/07/2015|15:43:51|498956|418.96|0001230010050310000013740418961|001005031000001374
REG|000089|09/07/2015|16:05:17|498960|418.96|0001230010030310000011910418964|001003031000001191
REG|000090|09/07/2015|16:03:59|498972|502.74|0001230010300310000017160502749|001030031000001716
REG|000091|09/07/2015|16:16:09|498983|251.38|0001230010210310000028680251385|001021031000002868
REG|000092|09/07/2015|16:13:29|498991|418.96|0001230010090310000010600418968|001009031000001060
REG|000093|09/07/2015|16:14:39|498995|418.96|0001230010090310000010610418966|001009031000001061
REG|000094|09/07/2015|16:21:49|498997|469.23|0001230010470310000021230469230|001047031000002123
REG|000095|09/07/2015|16:18:10|499010|335.16|0001230010090310000010590335164|001009031000001059
REG|000096|09/07/2015|16:24:24|499011|418.96|0001230010520310000001120418968|001052031000000112
REG|000097|09/07/2015|16:19:37|499015|418.96|0001230010090310000010620418964|001009031000001062
REG|000098|09/07/2015|16:26:43|499018|251.38|0001230010490310000015430251386|001049031000001543
REG|000099|09/07/2015|16:28:24|499026|418.96|0001230010520310000004800418969|001052031000000480
REG|000100|09/07/2015|16:28:29|499027|418.96|0001230010500310000003040418965|001050031000000304
REG|000101|09/07/2015|16:29:14|499033|167.58|0001230010490310000015470167583|001049031000001547
REG|000102|09/07/2015|16:29:26|499035|586.54|0001230010210310000019720586542|001021031000001972
REG|000103|09/07/2015|16:29:36|499036|351.92|0001230010310310000014660351923|001031031000001466
REG|000104|09/07/2015|16:30:26|499041|418.96|0001230010500310000003060418960|001050031000000306
REG|000105|09/07/2015|16:31:10|499044|586.54|0001230010310310000014650586546|001031031000001465
REG|000106|09/07/2015|16:32:03|499047|418.96|0001230010030310000009650418962|001003031000000965
REG|000107|09/07/2015|16:32:37|499048|418.96|0001230010500310000003030418967|001050031000000303
REG|000108|09/07/2015|16:27:06|499052|418.96|0001230010310310000012090418965|001031031000001209
REG|000109|09/07/2015|16:33:48|499056|418.96|0001230010030310000009620418969|001003031000000962
REG|000110|09/07/2015|16:33:50|499057|351.92|0001230010310310000014690351927|001031031000001469
REG|000111|09/07/2015|16:27:57|499060|418.96|0001230010310310000012080418967|001031031000001208
REG|000112|09/07/2015|16:34:51|499063|418.96|0001230010500310000003070418968|001050031000000307
REG|000113|09/07/2015|16:35:07|499064|351.92|0001230010310310000014670351921|001031031000001467
REG|000114|09/07/2015|16:38:11|499072|418.96|0001230010500310000003080418966|001050031000000308
REG|000115|09/07/2015|16:32:09|499073|418.96|0001230010310310000015520418968|001031031000001552
REG|000116|09/07/2015|16:38:31|499075|377.06|0001230010300310000017190377062|001030031000001719
REG|000117|09/07/2015|16:39:02|499078|251.38|0001230010490310000007310251388|001049031000000731
REG|000118|09/07/2015|16:40:37|499083|167.58|0001230010300310000017180167580|001030031000001718
REG|000119|09/07/2015|16:22:59|499084|167.58|0001230010050310000013750167581|001005031000001375
REG|000120|09/07/2015|16:41:03|499086|418.96|0001230010500310000003050418962|001050031000000305
REG|000121|09/07/2015|16:43:00|499092|586.54|0001230010300310000017140586549|001030031000001714
REG|000122|09/07/2015|16:44:59|499097|255.86|0001230010210310000023890255862|001021031000002389
REG|000123|09/07/2015|16:45:12|499099|418.96|0001230010500310000006110418963|001050031000000611
REG|000124|09/07/2015|16:41:35|499108|251.38|0001230010030310000011010251380|001003031000001101
REG|000125|09/07/2015|16:49:13|499112|335.16|0001230010130310000023010335161|001013031000002301
REG|000126|09/07/2015|16:49:19|499113|418.96|0001230010430310000007270418962|001043031000000727
REG|000127|09/07/2015|16:50:32|499121|167.58|0001230010130310000022980167588|001013031000002298
REG|000128|09/07/2015|16:51:53|499127|251.38|0001230010130310000022990251380|001013031000002299
REG|000129|09/07/2015|16:53:08|499134|335.16|0001230010130310000023000335163|001013031000002300
REG|000130|09/07/2015|16:55:07|499139|209.48|0001230010130310000023020209489|001013031000002302
REG|000131|09/07/2015|16:56:47|499143|335.16|0001230010130310000022970335161|001013031000002297
REG|000132|09/07/2015|16:59:43|499146|404.02|0001230010300310000014460404023|001030031000001446
REG|000133|09/07/2015|16:55:49|499154|418.96|0001230010110310000007810418966|001011031000000781
REG|000134|09/07/2015|16:57:23|499157|418.96|0001230010110310000007860418965|001011031000000786
REG|000135|09/07/2015|17:06:04|499195|867.78|0001230010110110000001910867788|001011011000000191
REG|000136|09/07/2015|17:14:28|499220|213.21|0001230010030310000011480213217|001003031000001148
REG|000137|09/07/2015|17:16:37|499226|213.21|0001230010030310000011500213213|001003031000001150
REG|000138|09/07/2015|17:18:47|499233|213.21|0001230010030310000011470213219|001003031000001147
REG|000139|09/07/2015|17:29:05|499278|1131.25|0001230010070310000005761131255|001007031000000576
REG|000140|09/07/2015|17:39:24|499298|418.96|0001230010470310000021160418967|001047031000002116
REG|000141|09/07/2015|17:46:08|499317|418.96|0001230010420310000002780418968|001042031000000278
REG|000142|09/07/2015|17:47:51|499325|418.96|0001230010420310000002830418968|001042031000000283
REG|000143|09/07/2015|17:42:15|499326|1790.96|0001230010300110000000221790960|001030011000000022
REG|000144|09/07/2015|17:50:19|499338|404.02|0001230010490310000011830404022|001049031000001183
REG|000145|09/07/2015|17:45:04|499344|565.62|0001230010110310000008610565626|001011031000000861
REG|000146|09/07/2015|17:55:53|499364|418.96|0001230010520310000000640418961|001052031000000064
REG|000147|09/07/2015|17:50:17|499368|251.38|0001230010030310000012050251389|001003031000001205
REG|000148|09/07/2015|17:57:33|499374|418.96|0001230010520310000000660418966|001052031000000066
REG|000149|09/07/2015|17:58:58|499379|586.54|0001230010210310000027760586546|001021031000002776
REG|000150|09/07/2015|17:59:01|499380|251.38|0001230010520310000000670251381|001052031000000067
REG|000151|09/07/2015|18:00:27|499386|418.96|0001230010520310000000680418962|001052031000000068
REG|000152|09/07/2015|17:43:32|499391|418.96|0001230010050310000013780418962|001005031000001378
REG|000153|09/07/2015|18:01:27|499392|586.54|0001230010210310000027790586540|001021031000002779
REG|000154|09/07/2015|18:04:11|499402|418.96|0001230010210310000027770418961|001021031000002777
REG|000155|09/07/2015|17:59:14|499407|850.42|0001230010110110000001800850423|001011011000000180
REG|000156|09/07/2015|18:06:58|499414|586.54|0001230010210310000027800586548|001021031000002780
REG|000157|09/07/2015|18:08:16|499418|682.27|0001230010210310000023800682270|001021031000002380
REG|000158|09/07/2015|18:09:47|499423|404.02|0001230010490310000011840404020|001049031000001184
REG|000159|09/07/2015|18:11:17|499432|426.42|0001230010430310000003170426429|001043031000000317
REG|000160|09/07/2015|18:11:38|499434|502.74|0001230010210310000019340502747|001021031000001934
REG|000161|09/07/2015|18:14:02|499439|251.38|0001230010420310000002960251387|001042031000000296
REG|000162|09/07/2015|18:15:12|499445|426.42|0001230010430310000003140426426|001043031000000314
REG|000163|09/07/2015|18:15:51|499450|404.02|0001230010420310000002400404026|001042031000000240
REG|000164|09/07/2015|18:17:18|499453|404.02|0001230010420310000002370404022|001042031000000237
REG|000165|09/07/2015|18:23:05|499469|418.96|0001230010500310000004950418961|001050031000000495
REG|000166|09/07/2015|18:24:02|499474|677.42|0001230010470110000001120677427|001047011000000112
REG|000167|09/07/2015|18:24:04|499475|418.96|0001230010500310000004960418969|001050031000000496
REG|000168|09/07/2015|18:24:23|499479|335.16|0001230010430310000004230335162|001043031000000423
REG|000169|09/07/2015|18:24:34|499480|251.38|0001230010210310000027550251384|001021031000002755
REG|000170|09/07/2015|18:30:48|499512|418.96|0001230010090310000012750418962|001009031000001275
REG|000171|09/07/2015|18:31:46|499515|418.96|0001230010090310000012740418965|001009031000001274
REG|000172|09/07/2015|18:32:34|499517|335.16|0001230010090310000012720335163|001009031000001272
REG|000173|09/07/2015|18:34:07|499525|335.16|0001230010090310000012720335163|001009031000001272
REG|000174|09/07/2015|18:40:52|499526|418.96|0001230010130310000019430418967|001013031000001943
REG|000175|09/07/2015|18:42:03|499529|418.96|0001230010130310000019460418960|001013031000001946
REG|000176|09/07/2015|18:40:07|499545|418.96|0001230010110310000008550418968|001011031000000855
REG|000177|09/07/2015|18:52:17|499561|251.38|0001230010490310000014470251380|001049031000001447
REG|000178|09/07/2015|18:53:40|499565|418.96|0001230010490310000014450418967|001049031000001445
REG|000179|09/07/2015|18:55:00|499570|418.96|0001230010520310000000130418968|001052031000000013
REG|000180|09/07/2015|18:55:39|499573|335.16|0001230010490310000014460335169|001049031000001446
REG|000181|09/07/2015|18:56:56|499578|335.16|0001230010490310000014440335164|001049031000001444
REG|000182|09/07/2015|19:02:11|499594|167.58|0001230010030310000012240167586|001003031000001224
REG|000183|09/07/2015|19:02:33|499596|418.96|0001230010210310000021320418969|001021031000002132
REG|000184|09/07/2015|19:04:39|499600|418.96|0001230010210310000021310418961|001021031000002131
REG|000185|09/07/2015|19:09:43|499619|418.96|0001230010310310000012240418964|001031031000001224
REG|000186|09/07/2015|19:06:39|499634|335.16|0001230010030310000011940335162|001003031000001194
REG|000187|09/07/2015|19:13:00|499636|418.96|0001230010210310000027530418962|001021031000002753
REG|000188|09/07/2015|19:12:31|499648|418.96|0001230010090310000012730418967|001009031000001273
REG|000189|09/07/2015|19:21:44|499655|251.38|0001230010420310000003220251381|001042031000000322
REG|000190|09/07/2015|19:26:57|499668|418.96|0001230010430310000005960418961|001043031000000596
REG|000191|09/07/2015|19:27:42|499670|426.42|0001230010490310000001090426427|001049031000000109
REG|000192|09/07/2015|19:29:55|499678|426.42|0001230010490310000001110426423|001049031000000111
REG|000193|09/07/2015|19:31:59|499689|426.42|0001230010490310000001120426421|001049031000000112
REG|000194|09/07/2015|19:33:58|499696|837.91|0001230010300310000017150837915|001030031000001715
REG|000195|09/07/2015|19:39:31|499717|335.16|0001230010500310000005000335162|001050031000000500
REG|000196|09/07/2015|19:43:09|499731|418.96|0001230010140310000017020418965|001014031000001702
REG|000197|09/07/2015|19:44:16|499735|586.54|0001230010310310000015730586547|001031031000001573
REG|000198|09/07/2015|19:44:34|499738|418.96|0001230010500310000005010418966|001050031000000501
REG|000199|09/07/2015|19:48:08|499751|418.96|0001230010310310000015500418962|001031031000001550
REG|000200|09/07/2015|19:56:18|499793|251.38|0001230010030310000011870251389|001003031000001187
REG|000201|09/07/2015|18:04:26|499819|418.96|0001230010370310000004420418960|001037031000000442
REG|000202|09/07/2015|20:11:29|499824|167.58|0001230010500310000001390167588|001050031000000139
REG|000203|09/07/2015|18:05:49|499826|418.96|0001230010370310000004400418964|001037031000000440
REG|000204|09/07/2015|18:07:05|499829|418.96|0001230010370310000004410418962|001037031000000441
REG|000205|09/07/2015|20:13:32|499830|335.16|0001230010500310000001400335167|001050031000000140
REG|000206|09/07/2015|20:10:28|499840|418.96|0001230010070310000005620418968|001007031000000562
REG|000207|09/07/2015|20:26:26|499858|418.96|0001230010500310000005240418968|001050031000000524
REG|000208|09/07/2015|20:31:41|499870|418.96|0001230010500310000005230418960|001050031000000523
REG|000209|09/07/2015|20:32:44|499874|251.38|0001230010110310000006680251382|001011031000000668
REG|000210|09/07/2015|20:34:09|499879|335.16|0001230010110310000006670335161|001011031000000667
REG|000211|09/07/2015|20:45:08|499903|418.96|0001230010030310000013210418967|001003031000001321
REG|000212|09/07/2015|20:47:31|499911|418.96|0001230010210310000027320418966|001021031000002732
REG|000213|09/07/2015|20:49:25|499915|251.38|0001230010210310000027350251386|001021031000002735
REG|000214|09/07/2015|20:44:40|499919|418.96|0001230010090310000012760418960|001009031000001276
REG|000215|09/07/2015|20:51:07|499921|418.96|0001230010210310000027340418962|001021031000002734
REG|000216|09/07/2015|20:52:42|499923|418.96|0001230010210310000027310418968|001021031000002731
REG|000217|09/07/2015|20:54:39|499925|418.96|0001230010210310000027300418960|001021031000002730
REG|000218|09/07/2015|21:02:34|499967|251.38|0001230010030310000010190251384|001003031000001019
REG|000219|09/07/2015|21:04:57|499972|251.38|0001230010030310000010150251382|001003031000001015
REG|000220|09/07/2015|21:14:41|499978|255.86|0001230010030310000012750255862|001003031000001275
REG|000221|09/07/2015|21:09:06|499982|418.96|0001230010030310000010160418963|001003031000001016
REG|000222|09/07/2015|21:17:31|499986|418.96|0001230010030310000011950418965|001003031000001195
REG|000223|09/07/2015|21:16:13|499994|418.96|0001230010070310000003940418966|001007031000000394
REG|000224|09/07/2015|21:22:37|499995|426.42|0001230010030310000010550426428|001003031000001055
REG|000225|09/07/2015|21:35:05|500006|418.96|0001230010090310000012210418966|001009031000001221
REG|000226|09/07/2015|21:36:22|500007|418.96|0001230010090310000012180418962|001009031000001218
REG|000227|09/07/2015|21:42:13|500013|418.96|0001230010140310000017060418966|001014031000001706
REG|000228|09/07/2015|21:44:48|500021|251.38|0001230010030310000010990251386|001003031000001099
REG|000229|09/07/2015|21:49:17|500025|670.32|0001230010070310000004500670327|001007031000000450
REG|000230|09/07/2015|21:55:42|500030|418.96|0001230010050310000010340418961|001005031000001034
REG|000231|09/07/2015|21:57:04|500033|418.96|0001230010110310000007440418964|001011031000000744
REG|000232|09/07/2015|21:57:19|500034|251.38|0001230010050310000010350251385|001005031000001035
REG|000233|09/07/2015|22:28:27|500071|418.96|0001230010420310000000620418966|001042031000000062
REG|000234|09/07/2015|22:34:57|500072|418.96|0001230010500310000003410418967|001050031000000341
REG|000235|09/07/2015|22:36:08|500074|418.96|0001230010500310000003400418969|001050031000000340
REG|000236|09/07/2015|22:30:24|500075|418.96|0001230010420310000000600418960|001042031000000060
REG|000237|09/07/2015|22:31:48|500076|418.96|0001230010420310000000640418962|001042031000000064
REG|000238|09/07/2015|22:33:59|500077|418.96|0001230010420310000000650418969|001042031000000065
REG|000239|09/07/2015|22:37:48|500083|251.38|0001230010420310000001310251386|001042031000000131
REG|000240|09/07/2015|22:49:34|500088|846.78|0001230010470110000000310846784|001047011000000031