REG|000001|10/07/2015|02:00:45|500127|418.96|0001230010310310000014540418967|001031031000001454
REG|000002|10/07/2015|07:40:26|500139|418.96|0001230010210310000027330418964|001021031000002733
REG|000003|10/07/2015|08:14:05|500152|418.96|0001230010490310000004960418961|001049031000000496
REG|000004|10/07/2015|08:16:23|500153|418.96|0001230010070310000006470418967|001007031000000647
REG|000005|10/07/2015|08:20:08|500159|251.38|0001230010520310000003070251381|001052031000000307
REG|000006|10/07/2015|08:30:08|500169|251.38|0001230010500310000003860251389|001050031000000386
REG|000007|10/07/2015|08:34:39|500188|418.96|0001230010070310000004000418961|001007031000000400
REG|000008|10/07/2015|08:33:35|500191|418.96|0001230010110310000006880418963|001011031000000688
REG|000009|10/07/2015|08:46:51|500201|335.16|0001230010210310000028660335166|001021031000002866
REG|000010|10/07/2015|08:50:30|500209|418.96|0001230010420310000004200418966|001042031000000420
REG|000011|10/07/2015|08:54:18|500215|418.96|0001230010420310000004170418962|001042031000000417
REG|000012|10/07/2015|09:13:37|500224|586.54|0001230010030310000013150586542|001003031000001315
REG|000013|10/07/2015|09:14:06|500234|418.96|0001230010020310000011780418963|001002031000001178
REG|000014|10/07/2015|09:22:38|500243|418.96|0001230010110310000008760418964|001011031000000876
REG|000015|10/07/2015|09:49:34|500265|418.96|0001230010020310000011080418960|001002031000001108
REG|000016|10/07/2015|09:56:10|500275|418.96|0001230010500310000003270418966|001050031000000327
REG|000017|10/07/2015|10:04:48|500287|418.96|0001230010420310000002820418960|001042031000000282
REG|000018|10/07/2015|10:06:35|500290|418.96|0001230010420310000001950418964|001042031000000195
REG|000019|10/07/2015|10:02:33|500292|251.38|0001230010070310000004570251388|001007031000000457
REG|000020|10/07/2015|10:13:02|500306|418.96|0001230010500310000005250418965|001050031000000525
REG|000021|10/07/2015|10:14:06|500309|418.96|0001230010520310000003110418966|001052031000000311
REG|000022|10/07/2015|10:09:25|500312|251.38|0001230010420310000000170251387|001042031000000017
REG|000023|10/07/2015|10:16:17|500314|418.96|0001230010500310000005260418963|001050031000000526
REG|000024|10/07/2015|10:18:23|500319|426.42|0001230010020310000010490426423|001002031000001049
REG|000025|10/07/2015|10:18:01|500329|426.42|0001230010090310000009860426422|001009031000000986
REG|000026|10/07/2015|10:19:36|500330|426.42|0001230010090310000009850426424|001009031000000985
REG|000027|10/07/2015|10:19:46|500331|418.96|0001230010030310000012070418968|001003031000001207
REG|000028|10/07/2015|10:21:26|500332|418.96|0001230010090310000012230418962|001009031000001223
REG|000029|10/07/2015|10:30:50|500337|418.96|0001230010040310000015350418960|001004031000001535
REG|000030|10/07/2015|10:26:29|500340|335.16|0001230010120310000009440335162|001012031000000944
REG|000031|10/07/2015|10:45:58|500363|255.86|0001230010430310000007490255863|001043031000000749
REG|000032|10/07/2015|10:54:50|500372|418.96|0001230010090310000013130418961|001009031000001313
REG|000033|10/07/2015|10:56:18|500377|335.16|0001230010090310000013170335166|001009031000001317
REG|000034|10/07/2015|10:51:55|500383|418.96|0001230010070310000006490418963|001007031000000649
REG|000035|10/07/2015|10:58:17|500384|335.16|0001230010090310000013180335164|001009031000001318
REG|000036|10/07/2015|10:59:46|500386|251.38|0001230010090310000013160251381|001009031000001316
REG|000037|10/07/2015|10:53:47|500387|418.96|0001230010110310000008790418968|001011031000000879
REG|000038|10/07/2015|11:01:31|500389|251.38|0001230010090310000013140251386|001009031000001314
REG|000039|10/07/2015|11:03:57|500397|1128.01|0001230010300110000000181128011|001030011000000018
REG|000040|10/07/2015|10:58:35|500398|418.96|0001230010110310000008810418964|001011031000000881
REG|000041|10/07/2015|11:05:17|500400|418.96|0001230010090310000012120418965|001009031000001212
REG|000042|10/07/2015|11:05:35|500402|418.96|0001230010500310000005490418965|001050031000000549
REG|000043|10/07/2015|11:07:03|500406|335.16|0001230010090310000012160335160|001009031000001216
REG|000044|10/07/2015|11:08:20|500408|335.16|0001230010090310000012140335165|001009031000001214
REG|000045|10/07/2015|11:06:54|500416|167.58|0001230010020310000011820167588|001002031000001182
REG|000046|10/07/2015|11:19:25|500424|418.96|0001230010500310000003420418965|001050031000000342
REG|000047|10/07/2015|11:15:44|500428|418.96|0001230010110310000008360418968|001011031000000836
REG|000048|10/07/2015|11:16:59|500429|418.96|0001230010110310000008820418962|001011031000000882
REG|000049|10/07/2015|11:28:21|500436|335.16|0001230010480310000000360335161|001048031000000036
REG|000050|10/07/2015|11:27:14|500448|418.96|0001230010120310000009420418962|001012031000000942
REG|000051|10/07/2015|11:30:09|500453|251.38|0001230010030310000010980251388|001003031000001098
REG|000052|10/07/2015|11:51:38|500478|418.96|0001230010500310000003300418960|001050031000000330
REG|000053|10/07/2015|11:54:40|500487|251.38|0001230010500310000003260251385|001050031000000326
REG|000054|10/07/2015|11:53:36|500505|418.96|0001230010090310000010340418963|001009031000001034
REG|000055|10/07/2015|12:09:42|500525|418.96|0001230010500310000002370418967|001050031000000237
REG|000056|10/07/2015|12:04:03|500529|418.96|0001230010520310000004000418967|001052031000000400
REG|000057|10/07/2015|12:11:48|500530|251.38|0001230010500310000002350251388|001050031000000235
REG|000058|10/07/2015|12:06:25|500533|418.96|0001230010520310000003980418963|001052031000000398
REG|000059|10/07/2015|12:14:04|500536|251.38|0001230010500310000002330251383|001050031000000233
REG|000060|10/07/2015|12:14:09|500537|426.42|0001230010030310000012770426428|001003031000001277
REG|000061|10/07/2015|12:08:22|500539|418.96|0001230010520310000003970418965|001052031000000397
REG|000062|10/07/2015|12:15:29|500541|255.86|0001230010030310000012760255860|001003031000001276
REG|000063|10/07/2015|12:16:11|500543|293.26|0001230010500310000002380293269|001050031000000238
REG|000064|10/07/2015|12:16:47|500544|418.96|0001230010500310000005530418967|001050031000000553
REG|000065|10/07/2015|12:18:11|500546|418.96|0001230010500310000005540418965|001050031000000554
REG|000066|10/07/2015|12:18:25|500548|335.16|0001230010500310000002360335163|001050031000000236
REG|000067|10/07/2015|12:19:16|500550|251.38|0001230010040310000015310251386|001004031000001531
REG|000068|10/07/2015|12:19:32|500552|418.96|0001230010500310000005580418966|001050031000000558
REG|000069|10/07/2015|12:20:45|500555|418.96|0001230010500310000005550418962|001050031000000555
REG|000070|10/07/2015|12:21:55|500557|418.96|0001230010500310000005560418960|001050031000000556
REG|000071|10/07/2015|12:17:52|500561|167.58|0001230010020310000011770167588|001002031000001177
REG|000072|10/07/2015|12:25:14|500580|418.96|0001230010110310000007580418964|001011031000000758
REG|000073|10/07/2015|12:32:56|500582|418.96|0001230010500310000002850418966|001050031000000285
REG|000074|10/07/2015|12:35:57|500588|418.96|0001230010500310000002790418969|001050031000000279
REG|000075|10/07/2015|12:37:00|500589|255.86|0001230010040310000015510255864|001004031000001551
REG|000076|10/07/2015|12:38:16|500596|255.86|0001230010040310000015490255868|001004031000001549
REG|000077|10/07/2015|12:42:18|500609|418.96|0001230010500310000005570418968|001050031000000557
REG|000078|10/07/2015|12:46:54|500619|418.96|0001230010500310000005060418965|001050031000000506
REG|000079|10/07/2015|12:48:15|500621|418.96|0001230010500310000005020418964|001050031000000502
REG|000080|10/07/2015|12:49:02|500622|418.96|0001230010040310000016770418960|001004031000001677
REG|000081|10/07/2015|12:49:45|500623|251.38|0001230010310310000014170251381|001031031000001417
REG|000082|10/07/2015|12:52:23|500629|251.38|0001230010310310000014210251383|001031031000001421
REG|000083|10/07/2015|12:53:28|500634|418.96|0001230010500310000002340418964|001050031000000234
REG|000084|10/07/2015|12:53:04|500651|418.96|0001230010070310000004030418965|001007031000000403
REG|000085|10/07/2015|12:56:23|500655|418.96|0001230010050310000013300418963|001005031000001330
REG|000086|10/07/2015|13:19:00|500684|251.38|0001230010500310000006080251386|001050031000000608
REG|000087|10/07/2015|13:20:52|500690|564.50|0001230010210110000000930564507|001021011000000093
REG|000088|10/07/2015|13:19:08|500700|418.96|0001230010050310000013310418961|001005031000001331
REG|000089|10/07/2015|11:22:11|500708|418.96|0001230010370310000004430418968|001037031000000443
REG|000090|10/07/2015|13:28:25|500723|418.96|0001230010420310000003280418961|001042031000000328
REG|000091|10/07/2015|13:30:52|500728|418.96|0001230010520310000003950418969|001052031000000395
REG|000092|10/07/2015|13:51:18|500760|251.38|0001230010210310000028740251383|001021031000002874
REG|000093|10/07/2015|13:51:29|500761|426.42|0001230010030310000012830426426|001003031000001283
REG|000094|10/07/2015|13:59:01|500787|502.74|0001230010300310000013800502744|001030031000001380
REG|000095|10/07/2015|12:55:09|500795|418.96|0001230010050310000011250418967|001005031000001125
REG|000096|10/07/2015|12:57:25|500800|418.96|0001230010050310000011220418964|001005031000001122
REG|000097|10/07/2015|14:06:34|500809|418.96|0001230010500310000003290418962|001050031000000329
REG|000098|10/07/2015|14:07:40|500810|418.96|0001230010500310000006250418963|001050031000000625
REG|000099|10/07/2015|14:19:15|500845|418.96|0001230010040310000016730418969|001004031000001673
REG|000100|10/07/2015|14:13:26|500855|251.38|0001230010120310000009430251387|001012031000000943
REG|000101|10/07/2015|14:25:15|500858|418.96|0001230010040310000016740418967|001004031000001674
REG|000102|10/07/2015|14:26:49|500861|251.38|0001230010040310000016750251381|001004031000001675
REG|000103|10/07/2015|14:28:10|500863|418.96|0001230010040310000016760418962|001004031000001676
REG|000104|10/07/2015|14:29:25|500867|418.96|0001230010040310000015340418963|001004031000001534
REG|000105|10/07/2015|14:29:28|500868|418.96|0001230010040310000016780418968|001004031000001678
REG|000106|10/07/2015|14:30:50|500872|418.96|0001230010040310000015360418968|001004031000001536
REG|000107|10/07/2015|14:42:18|500900|426.42|0001230010490310000001100426425|001049031000000110
REG|000108|10/07/2015|14:44:06|500911|426.42|0001230010030310000012790426424|001003031000001279
REG|000109|10/07/2015|14:38:33|500914|418.96|0001230010120310000009450418965|001012031000000945
REG|000110|10/07/2015|14:58:12|500954|335.16|0001230010030310000010700335164|001003031000001070
REG|000111|10/07/2015|14:58:22|500956|335.16|0001230010500310000001450335166|001050031000000145
REG|000112|10/07/2015|14:54:26|500963|335.16|0001230010020310000007880335164|001002031000000788
REG|000113|10/07/2015|15:01:10|500966|251.38|0001230010310310000015930251389|001031031000001593
REG|000114|10/07/2015|14:55:24|500968|335.16|0001230010110310000008210335164|001011031000000821
REG|000115|10/07/2015|15:06:46|500979|586.54|0001230010310310000014890586546|001031031000001489
REG|000116|10/07/2015|15:17:38|501034|620.04|0001230010310310000014960620043|001031031000001496
REG|000117|10/07/2015|15:25:44|501041|255.86|0001230010030310000012840255864|001003031000001284
REG|000118|10/07/2015|15:25:22|501055|426.42|0001230010030310000012810426420|001003031000001281
REG|000119|10/07/2015|15:33:20|501059|418.96|0001230010420310000003720418969|001042031000000372
REG|000120|10/07/2015|15:28:55|501063|426.42|0001230010030310000012820426428|001003031000001282
REG|000121|10/07/2015|15:39:59|501073|418.96|0001230010490310000014760418962|001049031000001476
REG|000122|10/07/2015|15:45:11|501081|418.96|0001230010030310000011860418964|001003031000001186
REG|000123|10/07/2015|15:47:45|501087|418.96|0001230010030310000011890418968|001003031000001189
REG|000124|10/07/2015|15:40:17|501088|418.96|0001230010030310000010720418966|001003031000001072
REG|000125|10/07/2015|15:46:31|501106|335.16|0001230010030310000010690335166|001003031000001069
REG|000126|10/07/2015|15:56:10|501111|418.96|0001230010490310000014750418964|001049031000001475
REG|000127|10/07/2015|16:01:02|501122|418.96|0001230010130310000022330418962|001013031000002233
REG|000128|10/07/2015|15:55:34|501125|251.38|0001230010310310000013700251382|001031031000001370
REG|000129|10/07/2015|16:02:58|501131|335.16|0001230010130310000022340335164|001013031000002234
REG|000130|10/07/2015|16:04:32|501132|167.58|0001230010130310000022350167580|001013031000002235
REG|000131|10/07/2015|15:58:42|501133|251.38|0001230010050310000013830251389|001005031000001383
REG|000132|10/07/2015|16:05:57|501137|418.96|0001230010130310000022360418965|001013031000002236
REG|000133|10/07/2015|16:06:12|501139|418.96|0001230010040310000015320418967|001004031000001532
REG|000134|10/07/2015|16:07:32|501146|335.16|0001230010130310000022370335167|001013031000002237
REG|000135|10/07/2015|16:08:26|501153|418.96|0001230010430310000002090418961|001043031000000209
REG|000136|10/07/2015|16:08:29|501154|418.96|0001230010040310000015330418965|001004031000001533
REG|000137|10/07/2015|16:09:23|501155|251.38|0001230010130310000022380251388|001013031000002238
REG|000138|10/07/2015|16:05:52|501162|335.16|0001230010110310000006450335167|001011031000000645
REG|000139|10/07/2015|16:09:24|501168|418.96|0001230010030310000009340418968|001003031000000934
REG|000140|10/07/2015|16:09:38|501171|335.16|0001230010110310000006410335166|001011031000000641
REG|000141|10/07/2015|16:15:15|501189|418.96|0001230010030310000012060418960|001003031000001206
REG|000142|10/07/2015|16:22:51|501192|703.84|0001230010300310000014370703845|001030031000001437
REG|000143|10/07/2015|16:23:24|501194|335.16|0001230010500310000004510335168|001050031000000451
REG|000144|10/07/2015|16:17:28|501196|251.38|0001230010110310000006460251388|001011031000000646
REG|000145|10/07/2015|16:28:05|501214|167.58|0001230010300310000014330167586|001030031000001433
REG|000146|10/07/2015|16:32:46|501228|167.58|0001230010130310000025180167589|001013031000002518
REG|000147|10/07/2015|16:34:16|501234|209.48|0001230010130310000025150209486|001013031000002515
REG|000148|10/07/2015|16:35:37|501238|251.38|0001230010130310000025160251387|001013031000002516
REG|000149|10/07/2015|16:29:51|501239|418.96|0001230010050310000013180418968|001005031000001318
REG|000150|10/07/2015|14:33:08|501246|426.42|0001230010370310000006820426428|001037031000000682
REG|000151|10/07/2015|16:49:13|501273|200.00|0001230010430310000007880200008|001043031000000788
REG|000152|10/07/2015|17:00:00|501295|418.96|0001230010480310000000500418968|001048031000000050
REG|000153|10/07/2015|17:01:00|501300|251.38|0001230010030310000012080251383|001003031000001208
REG|000154|10/07/2015|17:04:58|501312|418.96|0001230010480310000000540418960|001048031000000054
REG|000155|10/07/2015|17:05:15|501326|418.96|0001230010490310000002150418965|001049031000000215
REG|000156|10/07/2015|17:13:46|501337|418.96|0001230010470310000016040418963|001047031000001604
REG|000157|10/07/2015|17:07:48|501339|167.58|0001230010490310000002120167585|001049031000000212
REG|000158|10/07/2015|17:04:58|501340|251.38|0001230010110310000006080251388|001011031000000608
REG|000159|10/07/2015|17:09:07|501347|418.96|0001230010490310000002110418964|001049031000000211
REG|000160|10/07/2015|17:22:00|501375|255.86|0001230010210310000023920255866|001021031000002392
REG|000161|10/07/2015|17:25:08|501407|404.02|0001230010050310000012170404020|001005031000001217
REG|000162|10/07/2015|17:28:16|501417|404.02|0001230010050310000012090404027|001005031000001209
REG|000163|10/07/2015|16:39:20|501463|404.02|0001230010050310000011140404029|001005031000001114
REG|000164|10/07/2015|17:50:36|501478|251.38|0001230010500310000002930251387|001050031000000293
REG|000165|10/07/2015|17:50:45|501479|703.84|0001230010300310000013780703841|001030031000001378
REG|000166|10/07/2015|17:45:32|501481|418.96|0001230010060310000008770418962|001006031000000877
REG|000167|10/07/2015|17:52:13|501482|418.96|0001230010300310000013790418968|001030031000001379
REG|000168|10/07/2015|17:56:00|501497|255.86|0001230010040310000015500255866|001004031000001550
REG|000169|10/07/2015|17:50:07|501498|418.96|0001230010060310000008780418960|001006031000000878
REG|000170|10/07/2015|17:56:54|501500|255.86|0001230010040310000015480255860|001004031000001548
REG|000171|10/07/2015|17:58:40|501507|418.96|0001230010090310000012190418960|001009031000001219
REG|000172|10/07/2015|17:53:43|501510|251.38|0001230010060310000008750251383|001006031000000875
REG|000173|10/07/2015|18:00:58|501513|418.96|0001230010090310000012220418964|001009031000001222
REG|000174|10/07/2015|17:56:49|501519|335.16|0001230010060310000008730335165|001006031000000873
REG|000175|10/07/2015|18:04:27|501525|418.96|0001230010500310000005660418969|001050031000000566
REG|000176|10/07/2015|15:58:33|501528|335.16|0001230010370310000008090335164|001037031000000809
REG|000177|10/07/2015|17:59:14|501529|335.16|0001230010060310000008740335163|001006031000000874
REG|000178|10/07/2015|18:00:47|501534|335.16|0001230010050310000013170335164|001005031000001317
REG|000179|10/07/2015|18:13:51|501557|502.74|0001230010300310000014680502747|001030031000001468
REG|000180|10/07/2015|18:14:45|501560|502.74|0001230010300310000014670502749|001030031000001467
REG|000181|10/07/2015|18:15:58|501567|418.96|0001230010300310000014660418963|001030031000001466
REG|000182|10/07/2015|18:16:55|501569|502.74|0001230010300310000014630502748|001030031000001463
REG|000183|10/07/2015|18:17:55|501573|426.42|0001230010140310000010910426420|001014031000001091
REG|000184|10/07/2015|18:20:42|501581|418.96|0001230010300310000012280418967|001030031000001228
REG|000185|10/07/2015|18:21:38|501584|418.96|0001230010500310000002690418960|001050031000000269
REG|000186|10/07/2015|18:19:51|501604|418.96|0001230010300310000015730418966|001030031000001573
REG|000187|10/07/2015|18:22:01|501610|335.16|0001230010300310000015710335164|001030031000001571
REG|000188|10/07/2015|18:23:37|501620|426.42|0001230010030110000000440426427|001003011000000044
REG|000189|10/07/2015|18:28:40|501639|418.96|0001230010310310000011090418967|001031031000001109
REG|000190|10/07/2015|18:36:06|501642|846.78|0001230010470110000001180846789|001047011000000118
REG|000191|10/07/2015|18:39:48|501653|508.06|0001230010470110000001320508067|001047011000000132
REG|000192|10/07/2015|18:38:10|501671|418.96|0001230010490310000004990418965|001049031000000499
REG|000193|10/07/2015|18:38:50|501673|251.38|0001230010020310000011790251388|001002031000001179
REG|000194|10/07/2015|18:52:41|501702|418.96|0001230010500310000002800418967|001050031000000280
REG|000195|10/07/2015|18:52:21|501727|418.96|0001230010070310000004580418969|001007031000000458
REG|000196|10/07/2015|19:05:43|501750|167.58|0001230010130310000016820167584|001013031000001682
REG|000197|10/07/2015|19:00:37|501752|418.96|0001230010110310000008780418960|001011031000000878
REG|000198|10/07/2015|19:07:32|501754|251.38|0001230010130310000016800251382|001013031000001680
REG|000199|10/07/2015|19:08:56|501760|251.38|0001230010130310000016840251384|001013031000001684
REG|000200|10/07/2015|19:11:17|501767|251.38|0001230010130310000016780251386|001013031000001678
REG|000201|10/07/2015|19:11:19|501768|586.54|0001230010470310000018510586543|001047031000001851
REG|000202|10/07/2015|19:06:43|501772|209.48|0001230010310310000011030209484|001031031000001103
REG|000203|10/07/2015|19:09:56|501782|255.86|0001230010420310000001570255861|001042031000000157
REG|000204|10/07/2015|19:17:21|501786|433.88|0001230010140110000000100433884|001014011000000010
REG|000205|10/07/2015|19:11:34|501789|255.86|0001230010420310000001560255863|001042031000000156
REG|000206|10/07/2015|19:13:04|501797|341.14|0001230010420310000001580341149|001042031000000158
REG|000207|10/07/2015|19:23:53|501833|418.96|0001230010220310000011400418961|001022031000001140
REG|000208|10/07/2015|19:33:49|501845|418.96|0001230010210310000019560418962|001021031000001956
REG|000209|10/07/2015|19:35:22|501852|846.78|0001230010470110000001170846781|001047011000000117
REG|000210|10/07/2015|19:39:51|501859|418.96|0001230010210310000020580418966|001021031000002058
REG|000211|10/07/2015|19:40:09|501860|418.96|0001230010500310000001030418961|001050031000000103
REG|000212|10/07/2015|19:41:34|501861|426.42|0001230010500310000000860426425|001050031000000086
REG|000213|10/07/2015|19:43:13|501864|418.96|0001230010500310000000680418966|001050031000000068
REG|000214|10/07/2015|19:44:43|501870|167.58|0001230010500310000000670167581|001050031000000067
REG|000215|10/07/2015|19:45:44|501875|418.96|0001230010090310000011060418969|001009031000001106
REG|000216|10/07/2015|19:46:15|501880|418.96|0001230010500310000000660418960|001050031000000066
REG|000217|10/07/2015|19:47:35|501884|418.96|0001230010500310000000650418962|001050031000000065
REG|000218|10/07/2015|19:49:12|501891|418.96|0001230010500310000000640418965|001050031000000064
REG|000219|10/07/2015|19:50:39|501898|418.96|0001230010500310000000630418967|001050031000000063
REG|000220|10/07/2015|19:44:37|501899|418.96|0001230010020310000011810418967|001002031000001181
REG|000221|10/07/2015|19:45:25|501901|418.96|0001230010300310000015680418966|001030031000001568
REG|000222|10/07/2015|19:46:36|501902|341.14|0001230010030310000012350341146|001003031000001235
REG|000223|10/07/2015|19:48:14|501908|426.42|0001230010030310000012360426424|001003031000001236
REG|000224|10/07/2015|19:54:48|501910|418.96|0001230010500310000004820418969|001050031000000482
REG|000225|10/07/2015|19:55:06|501946|418.96|0001230010050310000013290418965|001005031000001329
REG|000226|10/07/2015|19:56:31|501950|418.96|0001230010050310000013270418969|001005031000001327
REG|000227|10/07/2015|20:09:30|501961|418.96|0001230010500310000005690418963|001050031000000569
REG|000228|10/07/2015|20:10:04|501962|418.96|0001230010480310000000630418961|001048031000000063
REG|000229|10/07/2015|20:26:07|501987|251.38|0001230010520310000004530251383|001052031000000453
REG|000230|10/07/2015|20:46:17|502017|167.58|0001230010420310000000980167583|001042031000000098
REG|000231|10/07/2015|20:46:26|502018|703.84|0001230010210310000026690703841|001021031000002669
REG|000232|10/07/2015|20:49:22|502021|418.96|0001230010500310000005680418965|001050031000000568
REG|000233|10/07/2015|20:54:32|502032|251.38|0001230010420310000000930251388|001042031000000093
REG|000234|10/07/2015|20:54:56|502034|251.38|0001230010310310000014110251384|001031031000001411
REG|000235|10/07/2015|20:58:08|502042|167.58|0001230010420310000000940167582|001042031000000094
REG|000236|10/07/2015|21:01:22|502057|418.96|0001230010140310000015950418963|001014031000001595
REG|000237|10/07/2015|21:13:28|502071|846.78|0001230010470110000000180846781|001047011000000018
REG|000238|10/07/2015|21:15:27|502083|1131.25|0001230010070310000005701131258|001007031000000570
REG|000239|10/07/2015|19:37:17|502135|167.58|0001230010380310000004950167589|001038031000000495
REG|000240|10/07/2015|21:48:44|502152|418.96|0001230010030310000009890418962|001003031000000989
REG|000241|10/07/2015|21:51:00|502164|418.96|0001230010030310000009850418960|001003031000000985
REG|000242|10/07/2015|21:52:24|502166|251.38|0001230010030310000009880251381|001003031000000988
REG|000243|10/07/2015|21:53:40|502170|418.96|0001230010420310000003050418969|001042031000000305
REG|000244|10/07/2015|21:53:41|502171|418.96|0001230010030310000009860418968|001003031000000986
REG|000245|10/07/2015|22:14:22|502186|418.96|0001230010480310000000650418966|001048031000000065
REG|000246|10/07/2015|22:37:24|502204|418.96|0001230010020310000011560418969|001002031000001156
REG|000247|10/07/2015|22:56:53|502208|418.96|0001230010020310000011590418963|001002031000001159
REG|000248|10/07/2015|22:59:25|502215|418.96|0001230010020310000011580418965|001002031000001158
REG|000249|10/07/2015|22:59:32|502216|846.78|0001230010470110000000350846785|001047011000000035